ICMGP 2019 Lesson 1
…
Hg %>% group_by(Matrix, Scientific_Name) %>% 
  summarise(avgHg = mean(Result),
            stdevHg = sd(Result),
            n = n()) %>% 
  arrange(desc(avgHg))

## # A tibble: 31 x 5
## # Groups:   Matrix [13]
##    Matrix     Scientific_Name     avgHg stdevHg     n
##    <fct>      <fct>               <dbl>   <dbl> <int>
##  1 Fish Liver Lutjanus griseus    1.17   0.540      7
##  2 Fish Liver Diplodus argenteus  1.16   0.177      2
##  3 Fish Filet Diplodus argenteus  0.931  0.0212     2
##  4 Fish Liver Diapterus auratus   0.658  0.290      6
##  5 Fish Filet Diapterus auratus   0.400  0.121      6
##  6 Fish Filet Lutjanus griseus    0.377  0.0557     7
##  7 Fish Liver Oncorhynchus nerka  0.247  0.0535     6
##  8 Conch      Strombus gigas      0.239  0.244     10
##  9 Oyster     Ostrea sandvicensis 0.201  0.116     33
## 10 Mussel     Mytilus edulis      0.183  0.106    769
## # ... with 21 more rows
